<?xml version="1.0" encoding="iso-8859-1"?>
<!-- Uploaded to: SVG Repo, www.svgrepo.com, Generator: SVG Repo Mixer Tools -->
<svg fill="green" height="800px" width="800px" version="1.1" id="Layer_1" xmlns="http://www.w3.org/2000/svg" xmlns:xlink="http://www.w3.org/1999/xlink" 
	 viewBox="0 0 512 512" xml:space="preserve">
<g>
	<g>
		<path d="M499.169,496.06l-56.491-32.282L417.923,356.48c-0.512-2.176-1.852-4.07-3.738-5.282l-90.163-57.378
			c0.196-4.497,0.29-8.858,0.316-13.124l69.137-7.68c2.509-0.273,4.762-1.655,6.161-3.746l31.599-47.403h55.168
			c4.719,0,8.533-3.823,8.533-8.533c0-4.71-3.814-8.533-8.533-8.533H426.67c-2.85,0-5.521,1.425-7.1,3.797l-31.923,47.898
			l-63.625,7.066c-0.171-3.806-0.375-7.501-0.649-11.025l82.586-57.813c2.287-1.596,3.644-4.207,3.644-6.989v-63.428l38.528-23.117
			c4.036-2.432,5.35-7.672,2.918-11.708c-2.423-4.045-7.663-5.359-11.708-2.927l-42.667,25.6c-2.568,1.536-4.139,4.318-4.139,7.313
			v63.829l-71.202,49.835c-2.261-16.691-5.052-27.477-5.777-30.114l-1.451-8.73c-2.031-12.143-7.646-22.852-15.633-31.164
			c0.034-0.341,0.196-0.64,0.196-0.99c0-62.234,122.982-145.681,124.228-146.517c3.917-2.628,4.949-7.927,2.321-11.844
			c-2.637-3.908-7.936-4.949-11.844-2.321c-5.111,3.439-119.433,81.075-130.782,149.956c-8.021-4.045-17.05-6.34-26.59-6.34
			s-18.569,2.295-26.59,6.34C218.055,82.526,103.743,4.89,98.631,1.451c-3.908-2.628-9.224-1.579-11.844,2.321
			c-2.628,3.917-1.596,9.216,2.321,11.844c34.552,23.228,124.228,94.831,124.228,146.517c0,0.35,0.162,0.648,0.196,0.99
			c-7.987,8.311-13.602,19.021-15.633,31.164l-1.451,8.721c-0.725,2.637-3.516,13.423-5.777,30.123l-71.202-49.835v-63.829
			c0-2.995-1.579-5.777-4.139-7.313l-42.667-25.6c-4.053-2.432-9.284-1.118-11.716,2.927c-2.423,4.036-1.109,9.276,2.927,11.708
			l38.528,23.117v63.428c0,2.782,1.357,5.393,3.644,6.989l82.586,57.813c-0.273,3.524-0.478,7.219-0.649,11.025l-63.625-7.066
			l-31.923-47.898c-1.587-2.372-4.25-3.797-7.1-3.797H25.603c-4.719,0-8.533,3.823-8.533,8.533c0,4.71,3.814,8.533,8.533,8.533
			h55.168l31.599,47.403c1.399,2.091,3.652,3.473,6.161,3.746l69.137,7.68c0.026,4.267,0.111,8.627,0.316,13.124l-90.163,57.378
			c-1.886,1.212-3.226,3.106-3.738,5.282L69.328,463.779L12.837,496.06c-4.096,2.338-5.521,7.552-3.174,11.639
			c1.57,2.756,4.446,4.301,7.415,4.301c1.434,0,2.893-0.358,4.224-1.126l59.733-34.133c2.065-1.178,3.55-3.166,4.087-5.487
			l24.806-107.529l79.471-50.568c4.335,42.155,17.613,91.477,49.775,138.914c3.789,5.572,10.069,8.9,16.828,8.9
			s13.039-3.328,16.828-8.9c32.162-47.437,45.431-96.76,49.775-138.914l79.471,50.568l24.806,107.529
			c0.538,2.321,2.022,4.309,4.087,5.487l59.733,34.133c1.331,0.768,2.79,1.126,4.224,1.126c2.97,0,5.837-1.545,7.415-4.301
			C504.681,503.612,503.256,498.398,499.169,496.06z"/>
	</g>
</g>
</svg>